{
  "@quasar/icon-genie": {
    "minify_dev": "pngquant",
    "minify_build": "pngquant",
    "cordova": {
      "background_color": "#673ab7",
      "splashscreen_type": "generate"
    },
    "build_always": true,
    "__internal": {
      "dev": {
        "spa": {
          "iconHash": "1d29afcde4d6f4a1ab11b520a5c8004b"
        },
        "cordova": {
          "iconHash": "1d29afcde4d6f4a1ab11b520a5c8004b",
          "splashscreenHash": false,
          "splashscreenType": "generate",
          "backgroundColor": "#673ab7"
        }
      },
      "build": {
        "spa": {
          "iconHash": "1d29afcde4d6f4a1ab11b520a5c8004b"
        },
        "cordova": {
          "iconHash": "1d29afcde4d6f4a1ab11b520a5c8004b",
          "splashscreenHash": false,
          "splashscreenType": "generate",
          "backgroundColor": "#673ab7"
        }
      }
    }
  }
}